# cybercasa (Constantinte Cybersecurity Ltd)
# Deprecated as of 2022-09-13
# Check driftnet for updated IP addresses

# 193.163.125.84
# 193.163.125.128
# 193.163.125.68
# 193.163.125.203
# 193.163.125.91
# 193.163.125.112
# 193.163.125.233
# 193.163.125.173
# 193.163.125.134
# 193.163.125.26
# 193.163.125.121
# 193.163.125.45
# 193.163.125.95
# 193.163.125.200
# 193.163.125.150
# 193.163.125.90
# 193.163.125.164
# 193.163.125.243
# 193.163.125.126
# 193.163.125.7
# 193.163.125.133
# 193.163.125.20
# 193.163.125.205
# 193.163.125.174
# 193.163.125.186
# 193.163.125.180
# 193.163.125.185
# 193.163.125.32
# 193.163.125.83
# 193.163.125.82
# 193.163.125.99
# 193.163.125.142
# 193.163.125.145
# 193.163.125.48
# 193.163.125.230
# 193.163.125.215
# 193.163.125.240
# 193.163.125.234
# 193.163.125.44
# 193.163.125.176
# 193.163.125.39
# 193.163.125.46
# 193.163.125.204
# 193.163.125.177
# 193.163.125.163
# 193.163.125.69
# 193.163.125.87
# 193.163.125.166
# 193.163.125.141
# 193.163.125.178
# 193.163.125.135
# 193.163.125.183
# 193.163.125.210
# 193.163.125.157
# 193.163.125.51
# 193.163.125.167
# 193.163.125.94
# 193.163.125.76
# 193.163.125.125
# 193.163.125.123
# 193.163.125.188
# 193.163.125.16
# 193.163.125.57
# 193.163.125.23
# 193.163.125.218
# 193.163.125.209
# 193.163.125.66
# 193.163.125.117
# 193.163.125.58
# 193.163.125.147
# 193.163.125.89
# 193.163.125.63
# 193.163.125.222
# 193.163.125.108
# 193.163.125.216
# 193.163.125.98
# 193.163.125.211
# 193.163.125.127
# 193.163.125.92
# 193.163.125.194
# 193.163.125.225
# 193.163.125.212
# 193.163.125.73
# 193.163.125.6
# 193.163.125.139
# 193.163.125.14
# 193.163.125.74
# 193.163.125.103
# 193.163.125.111
# 193.163.125.162
# 193.163.125.2
# 193.163.125.226
# 193.163.125.106
# 193.163.125.132
# 193.163.125.151
# 193.163.125.55
# 193.163.125.137
# 193.163.125.10
# 193.163.125.17
# 193.163.125.28
# 193.163.125.169
# 193.163.125.8
# 193.163.125.86
# 193.163.125.244
# 193.163.125.208
# 193.163.125.119
# 193.163.125.53
# 193.163.125.71
# 193.163.125.250
# 193.163.125.110
# 193.163.125.238
# 193.163.125.36
# 193.163.125.107
# 193.163.125.97
# 193.163.125.30
# 193.163.125.231
# 193.163.125.156
# 193.163.125.148
# 193.163.125.70
# 193.163.125.124
# 193.163.125.131
# 193.163.125.29
# 193.163.125.252
# 193.163.125.175
# 193.163.125.152
# 193.163.125.247
# 193.163.125.143
# 193.163.125.40
# 193.163.125.50
# 193.163.125.56
# 193.163.125.199
# 193.163.125.229
# 193.163.125.190
# 193.163.125.201
# 193.163.125.189
# 193.163.125.41
# 193.163.125.25
# 193.163.125.114
# 193.163.125.207
# 193.163.125.253
# 193.163.125.144
# 193.163.125.130
# 193.163.125.62
# 193.163.125.221
# 193.163.125.81
# 193.163.125.158
# 193.163.125.102
# 193.163.125.118
# 193.163.125.120
# 193.163.125.195
# 193.163.125.232
# 193.163.125.170
# 193.163.125.96
# 193.163.125.217
# 193.163.125.161
# 193.163.125.109
# 193.163.125.254
# 193.163.125.35
# 193.163.125.236
# 193.163.125.198
# 193.163.125.49
# 193.163.125.187
# 193.163.125.38
# 193.163.125.9
# 193.163.125.67
# 193.163.125.251
# 193.163.125.223
# 193.163.125.27
# 193.163.125.61
# 193.163.125.171
# 193.163.125.18
# 193.163.125.246
# 193.163.125.52
# 193.163.125.43
# 193.163.125.13
# 193.163.125.249
# 193.163.125.115
# 193.163.125.122
# 193.163.125.179
# 193.163.125.3
# 193.163.125.202
# 193.163.125.116
# 193.163.125.165
# 193.163.125.105
# 193.163.125.12
# 193.163.125.154
# 193.163.125.239
# 193.163.125.4
# 193.163.125.159
# 193.163.125.100
# 193.163.125.93
# 193.163.125.220
# 193.163.125.153
# 193.163.125.193
# 193.163.125.172
# 193.163.125.197
# 193.163.125.129
# 193.163.125.155
# 193.163.125.80
# 193.163.125.149
# 193.163.125.219
# 193.163.125.191
# 193.163.125.242
# 193.163.125.206
# 193.163.125.47
# 193.163.125.19
# 193.163.125.136
# 193.163.125.77
# 193.163.125.15
# 193.163.125.59
# 193.163.125.213
# 193.163.125.64
# 193.163.125.60
# 193.163.125.245
# 193.163.125.184
# 193.163.125.75
# 193.163.125.214
# 193.163.125.241
# 193.163.125.37
# 193.163.125.181
# 193.163.125.224
# 193.163.125.101
# 193.163.125.227
# 193.163.125.237
# 193.163.125.104
# 193.163.125.168
# 193.163.125.192
# 193.163.125.11
# 193.163.125.138
# 193.163.125.72
# 193.163.125.113
# 193.163.125.5
# 193.163.125.24
# 193.163.125.235
# 193.163.125.34
# 193.163.125.42
# 193.163.125.21
# 193.163.125.88
# 193.163.125.54
# 193.163.125.65
# 193.163.125.228
# 193.163.125.79
# 193.163.125.182
# 193.163.125.248
# 193.163.125.146
# 193.163.125.33
# 193.163.125.140
# 193.163.125.85
# 193.163.125.160
# 193.163.125.78
# 193.163.125.22
# 193.163.125.31
# 193.163.125.196
