23.92.31.220
45.33.116.193
45.79.162.88
50.116.17.183
50.116.47.129
103.29.69.96
103.29.69.181
103.29.70.204
103.29.71.94
106.187.54.226
139.162.31.7
139.162.65.55
139.162.65.76
139.162.66.65
139.162.69.98
139.162.70.53
139.162.70.102
139.162.71.210
139.162.72.191
139.162.73.19
139.162.75.99
139.162.75.102
139.162.75.112
139.162.76.187
139.162.77.6
139.162.77.133
139.162.78.6
139.162.79.13
139.162.79.87
139.162.79.111
139.162.80.77
139.162.81.62
139.162.83.10
139.162.84.112
139.162.86.84
139.162.87.250
139.162.88.20
139.162.88.63
139.162.90.220
139.162.98.244
139.162.99.58
139.162.99.217
139.162.99.243
139.162.102.46
139.162.104.208
139.162.106.178
139.162.106.181
139.162.108.53
139.162.108.62
139.162.108.129
139.162.108.237
139.162.109.43
139.162.109.245
139.162.110.42
139.162.110.116
139.162.111.98
139.162.111.138
139.162.111.147
139.162.112.248
139.162.113.204
139.162.113.212
139.162.114.154
139.162.115.7
139.162.115.221
139.162.116.22
139.162.116.133
139.162.116.230
139.162.117.40
139.162.118.185
139.162.118.251
139.162.119.61
139.162.119.197
139.162.120.98
139.162.120.104
139.162.121.165
139.162.121.251
139.162.122.110
139.162.123.29
139.162.123.103
139.162.123.111
139.162.124.90
139.162.125.99
139.162.125.159
139.162.126.103
139.162.152.10
139.162.189.5
139.162.212.214
172.104.65.226
172.104.67.101
172.104.70.92
172.104.70.191
172.104.72.123
172.104.76.217
172.104.77.187
172.104.84.122
172.104.84.223
172.104.89.98
172.104.92.166
172.104.92.168
172.104.92.209
172.104.93.159
172.104.94.121
172.104.94.242
172.104.94.253
172.104.96.196
172.104.99.217
172.104.100.117
172.104.100.219
172.104.105.194
172.104.108.109
172.104.109.88
172.104.109.160
172.104.112.26
172.104.112.244
172.104.113.6
172.104.116.36
172.104.119.24
172.104.121.206
172.104.122.237
172.104.124.64
172.104.124.229
172.104.125.180
172.105.192.195
172.105.196.199
172.105.197.151
172.105.201.117
172.105.207.40
172.105.208.132
172.105.208.236
172.105.210.107
172.105.217.71
172.105.218.179
172.105.218.208
172.105.218.213
172.105.219.236
172.105.224.72
172.105.224.78
172.105.225.204
172.105.226.61
172.105.229.64
172.105.237.142
172.105.238.87
172.105.239.183
173.230.145.103
178.79.148.58
