45.33.52.84
46.101.9.166
68.183.137.43
104.248.49.115
104.248.51.163
104.248.55.153
138.68.178.211
159.65.18.59
159.65.134.224
159.89.137.18
165.22.5.250
167.172.34.253
172.105.29.176
173.230.151.76
173.255.220.97
188.166.41.205
188.166.174.98
194.195.119.239
206.189.113.16
209.97.179.122
209.97.189.3
188.166.91.210
104.248.61.108
157.230.215.2
209.97.139.53
194.195.112.227
172.105.40.85
165.227.57.82
104.248.121.27
23.239.21.83
172.105.77.150
172.105.74.239
172.105.117.26
159.65.18.158
139.162.136.153
172.105.81.146
68.183.102.106
172.104.227.6
96.126.101.158
138.68.147.16
213.168.250.126
45.79.71.197
172.104.39.113
188.166.175.162
139.162.187.214
45.79.184.159
172.104.131.13
172.105.40.13
45.79.77.87
194.195.114.234
173.255.249.78
139.162.202.229
23.239.2.153
45.33.50.173
104.248.121.241
159.65.134.221
45.56.84.93
159.65.22.1
178.62.196.109
142.93.151.62
45.79.124.190
194.195.119.240
194.195.119.240
139.162.155.88
167.99.96.131
173.255.211.252
172.105.106.64
178.128.247.152
45.33.50.106
50.116.62.150
139.177.193.156
45.56.93.115
157.230.6.217
142.93.10.221
159.65.18.237
159.89.141.103
157.230.227.55
172.105.85.90
165.227.53.55
172.104.53.107
157.230.224.96
50.116.63.34
178.128.236.243
159.65.98.161
138.68.187.232
159.89.131.17
159.65.26.116
157.230.213.77
159.65.26.71
109.74.202.179
159.65.31.243
46.101.13.122
139.177.192.183
167.172.33.218
172.104.139.66
172.105.83.107
178.62.66.24
167.99.110.51
206.189.202.223
206.81.12.83
142.93.131.15
188.166.168.207
188.166.168.236
167.172.133.55
159.89.157.254
139.162.130.39
173.255.237.30
167.172.44.60
167.172.42.35
139.162.147.137
167.99.110.39
167.172.42.255
45.79.75.81
159.65.89.6
209.97.187.40
159.65.64.101
104.237.159.52
159.65.142.53
138.68.176.195
159.65.231.196
139.177.182.221
178.79.133.125
178.79.139.96
157.230.49.9
45.33.55.67
159.89.159.85
167.172.34.24
172.104.145.182
172.104.174.197
45.56.101.243
138.68.51.196
176.58.125.104
178.79.168.88
45.56.94.248
192.155.89.94
104.248.49.147
157.230.231.92
173.230.153.184
165.22.191.99
139.162.159.200
68.183.123.133
212.71.234.238
209.97.181.219
139.162.179.49
45.79.123.85
172.105.251.61
45.33.40.191
45.79.189.15
173.255.209.105
157.230.213.72
139.59.84.189
138.68.31.136
97.107.134.124
212.71.233.179
139.177.195.82
172.105.3.178
172.105.65.157
172.105.73.207
104.237.154.253
68.183.113.59
176.58.107.179
46.101.24.43
167.172.33.222
45.33.65.38
178.62.84.99
206.189.182.14
159.65.26.115
212.71.235.106
134.209.72.44
45.33.94.13
142.93.119.136
167.172.34.20
151.236.217.65
159.65.26.121
128.199.48.147
172.105.9.34
176.58.118.253
167.172.38.161
172.104.249.246
157.230.212.167
45.79.85.237
178.79.129.208
45.79.133.56
45.33.84.94
159.89.155.179
